Case Studies in Data Mining with R
…
使用`predict()`函數，用剛剛訓練出來的模型`lr_fit`以及一開始分出的測試組`DM_test`產生預測結果，注意這邊要用測試組資料

```r
lr_pred <- lr_fit %>% 
  predict(DM_test)
lr_pred
```

```
## # A tibble: 97 x 1
##    .pred_class
##    <fct>      
##  1 pos        
##  2 neg        
##  3 neg        
##  4 pos        
##  5 pos        
##  6 pos        
##  7 neg        
##  8 neg        
##  9 neg        
## 10 neg        
## # ... with 87 more rows
```

將預測結果與答案結合

```r
lr_pred <- lr_fit %>%
  predict(DM_test) %>% 
  bind_cols(DM_test %>% select(diabetes)) 
lr_pred
```

```
## # A tibble: 97 x 2
##    .pred_class diabetes
##    <fct>       <fct>   
##  1 pos         pos     
##  2 neg         pos     
##  3 neg         neg     
##  4 pos         pos     
##  5 pos         pos     
##  6 pos         pos     
##  7 neg         neg     
##  8 neg         neg     
##  9 neg         neg     
## 10 neg         neg     
## # ... with 87 more rows
```
…
但很多時候我們需要Area under the ROC curve，此時我們需要的不是直接pos或neg的結果，我們需要的是連續性的預測數值，這邊可將`predict()`函數的`type`參數設定為prob，即回傳各組預測值

```r
lr_pred <- lr_fit %>%
  predict(DM_test,
          type = "prob")%>% 
  bind_cols(DM_test %>% select(diabetes)) 
lr_pred
```

```
## # A tibble: 97 x 3
##    .pred_neg .pred_pos diabetes
##        <dbl>     <dbl> <fct>   
##  1    0.180     0.820  pos     
##  2    0.648     0.352  pos     
##  3    0.850     0.150  neg     
##  4    0.0683    0.932  pos     
##  5    0.125     0.875  pos     
##  6    0.126     0.874  pos     
##  7    0.854     0.146  neg     
##  8    0.963     0.0366 neg     
##  9    0.824     0.176  neg     
## 10    0.733     0.267  neg     
## # ... with 87 more rows
```
…
```
## i Creating pre-processing data to finalize unknown parameter: mtry
```

執行完後，可用`collect_metrics()`查看各參數效能

```r
rf_res %>%
  collect_metrics()
```

```
## # A tibble: 49 x 7
##     mtry min_n .metric .estimator  mean     n
##    <int> <int> <chr>   <chr>      <dbl> <int>
##  1     1     5 roc_auc binary     0.798    10
##  2     1    15 roc_auc binary     0.809    10
##  3     1    27 roc_auc binary     0.808    10
##  4     2    11 roc_auc binary     0.809    10
##  5     2    21 roc_auc binary     0.809    10
##  6     2    23 roc_auc binary     0.809    10
##  7     2    29 roc_auc binary     0.810    10
##  8     2    32 roc_auc binary     0.811    10
##  9     2    35 roc_auc binary     0.810    10
## 10     2    36 roc_auc binary     0.808    10
## # ... with 39 more rows, and 1 more variable:
## #   std_err <dbl>
```
…
---
## Step 7 用測試組資料驗證最終模型效能

使用`predict()`函數，用剛剛訓練出來的模型`final_rf_model`以及一開始分出的測試組`DM_test`產生預測結果，注意這邊要用測試組資料

```r
rf_pred <- final_rf_model %>% 
  predict(DM_test)
rf_pred
```

```
## # A tibble: 97 x 1
##    .pred_class
##    <fct>      
##  1 pos        
##  2 neg        
##  3 neg        
##  4 pos        
##  5 pos        
##  6 pos        
##  7 neg        
##  8 neg        
##  9 neg        
## 10 neg        
## # ... with 87 more rows
```

將預測結果與答案結合

```r
rf_pred <- final_rf_model %>%
  predict(DM_test) %>% 
  bind_cols(DM_test %>% select(diabetes)) 
rf_pred
```

```
## # A tibble: 97 x 2
##    .pred_class diabetes
##    <fct>       <fct>   
##  1 pos         pos     
##  2 neg         pos     
##  3 neg         neg     
##  4 pos         pos     
##  5 pos         pos     
##  6 pos         pos     
##  7 neg         neg     
##  8 neg         neg     
##  9 neg         neg     
## 10 neg         neg     
## # ... with 87 more rows
```
…
但很多時候我們需要Area under the ROC curve，此時我們需要的不是直接pos或neg的結果，我們需要的是連續性的預測數值，這邊可將`predict()`函數的`type`參數設定為prob，即回傳各組預測值

```r
rf_pred <- final_rf_model %>%
  predict(DM_test,
          type = "prob")%>% 
  bind_cols(DM_test %>% select(diabetes)) 
rf_pred
```

```
## # A tibble: 97 x 3
##    .pred_neg .pred_pos diabetes
##        <dbl>     <dbl> <fct>   
##  1     0.367    0.633  pos     
##  2     0.518    0.482  pos     
##  3     0.658    0.342  neg     
##  4     0.156    0.844  pos     
##  5     0.105    0.895  pos     
##  6     0.181    0.819  pos     
##  7     0.862    0.138  neg     
##  8     0.955    0.0453 neg     
##  9     0.801    0.199  neg     
## 10     0.629    0.371  neg     
## # ... with 87 more rows
```
…
